; Engine configuration file.
; It's best edited using the editor UI and not directly,
; since the parameters that go here are not all obvious.
;
; Format:
;   [section] ; section goes between []
;   param=value ; assign values to parameters

config_version=4

_global_script_classes=[ {
"base": "RigidBody2D",
"class": "Cube",
"language": "GDScript",
"path": "res://Cube/Cube.gd"
} ]
_global_script_class_icons={
"Cube": ""
}

[application]

config/name="Time Killer"
run/main_scene="res://Game.tscn"
config/icon="res://icon.png"

[autoload]

Game="*res://Autoload/Game.gd"

[display]

window/stretch/mode="2d"
window/stretch/aspect="keep"

[gravity]

enable_audio_input=false

[input]

jump_up={
"deadzone": 0.5,
"events": [ Object(InputEventKey,"resource_local_to_scene":false,"resource_name":"","device":0,"alt":false,"shift":false,"control":false,"meta":false,"command":false,"pressed":false,"scancode":16777232,"unicode":0,"echo":false,"script":null)
, Object(InputEventKey,"resource_local_to_scene":false,"resource_name":"","device":0,"alt":false,"shift":false,"control":false,"meta":false,"command":false,"pressed":false,"scancode":87,"unicode":0,"echo":false,"script":null)
 ]
}
jump_down={
"deadzone": 0.5,
"events": [ Object(InputEventKey,"resource_local_to_scene":false,"resource_name":"","device":0,"alt":false,"shift":false,"control":false,"meta":false,"command":false,"pressed":false,"scancode":16777234,"unicode":0,"echo":false,"script":null)
, Object(InputEventKey,"resource_local_to_scene":false,"resource_name":"","device":0,"alt":false,"shift":false,"control":false,"meta":false,"command":false,"pressed":false,"scancode":83,"unicode":0,"echo":false,"script":null)
 ]
}
slow_down={
"deadzone": 0.5,
"events": [ Object(InputEventKey,"resource_local_to_scene":false,"resource_name":"","device":0,"alt":false,"shift":false,"control":false,"meta":false,"command":false,"pressed":false,"scancode":16777231,"unicode":0,"echo":false,"script":null)
, Object(InputEventKey,"resource_local_to_scene":false,"resource_name":"","device":0,"alt":false,"shift":false,"control":false,"meta":false,"command":false,"pressed":false,"scancode":65,"unicode":0,"echo":false,"script":null)
, Object(InputEventKey,"resource_local_to_scene":false,"resource_name":"","device":0,"alt":false,"shift":false,"control":false,"meta":false,"command":false,"pressed":false,"scancode":68,"unicode":0,"echo":false,"script":null)
, Object(InputEventKey,"resource_local_to_scene":false,"resource_name":"","device":0,"alt":false,"shift":false,"control":false,"meta":false,"command":false,"pressed":false,"scancode":16777233,"unicode":0,"echo":false,"script":null)
 ]
}

[physics]

2d/default_gravity=10

[rendering]

quality/driver/driver_name="GLES2"
vram_compression/import_etc=true
vram_compression/import_etc2=false
environment/default_environment="res://default_env.tres"
