[gd_scene load_steps=4 format=2]

[ext_resource path="res://Cube/Cube.tscn" type="PackedScene" id=1]

[sub_resource type="GDScript" id=1]
script/source = "extends Cube

func _on_collide(body: Node) -> void:
	if body.is_in_group(\"player\"):
		Game.health -= 2
	if body.is_in_group(\"death\"):
		Game.points += 1
"

[sub_resource type="RectangleShape2D" id=2]
resource_local_to_scene = true
extents = Vector2( 16, 16 )

[node name="DeathCube" instance=ExtResource( 1 )]
script = SubResource( 1 )

[node name="CollisionShape2D" parent="." index="0"]
shape = SubResource( 2 )
