[gd_scene load_steps=8 format=2]

[ext_resource path="res://Spawner/Spawn.gd" type="Script" id=1]
[ext_resource path="res://Cube/SlowCube.tscn" type="PackedScene" id=2]
[ext_resource path="res://Cube/SpeedCube.tscn" type="PackedScene" id=3]
[ext_resource path="res://Cube/GoldCube.tscn" type="PackedScene" id=4]
[ext_resource path="res://Cube/DeathCube.tscn" type="PackedScene" id=5]

[sub_resource type="Curve" id=1]
resource_local_to_scene = true
_data = [ Vector2( 0, 1 ), 0.0, 0.0, 0, 0, Vector2( 1, 0.268182 ), 0.0, 0.0, 0, 0 ]

[sub_resource type="Curve" id=2]
max_value = 3.0
_data = [ Vector2( 0, 0 ), 0.0, 0.0, 0, 0, Vector2( 0.5, 0 ), 0.120096, 0.120096, 0, 0, Vector2( 0.5, 0.9 ), 0.0, 0.0, 0, 0, Vector2( 0.701195, 0.9 ), 0.0, 0.0, 0, 0, Vector2( 0.707171, 2.15455 ), 0.0, 0.0, 0, 0, Vector2( 0.9, 2.1 ), 0.0, 0.0, 0, 0, Vector2( 0.9, 3 ), 0.0, 0.0, 0, 0 ]

[node name="Spawn" type="Position2D"]
position = Vector2( 934.551, 300 )
script = ExtResource( 1 )
cubes = [ ExtResource( 2 ), ExtResource( 3 ), ExtResource( 4 ), ExtResource( 5 ) ]
speed_curve = SubResource( 1 )
type_curve = SubResource( 2 )

[node name="Timer" type="Timer" parent="."]
process_mode = 0
wait_time = 0.3
autostart = true
[connection signal="timeout" from="Timer" to="." method="_on_Timer_timeout"]
